{
    "name": "SubCategories",
    "alias": "subcategories",
    "description": "",
    "keywords": [],
    "order": 0,
    "providers": [
        "Modules\\SubCategories\\Providers\\SubCategoriesServiceProvider"
    ],
    "aliases": {},
    "files": [],
    "requires": []
}
