{
    "name": "SoftwareBilling",
    "alias": "softwarebilling",
    "description": "",
    "keywords": [],
    "order": 0,
    "providers": [
        "Modules\\SoftwareBilling\\Providers\\SoftwareBillingServiceProvider"
    ],
    "aliases": {},
    "files": [],
    "requires": []
}
