{
    "name": "StockTransfers",
    "alias": "stocktransfers",
    "description": "",
    "keywords": [],
    "order": 0,
    "providers": [
        "Modules\\StockTransfers\\Providers\\StockTransfersServiceProvider"
    ],
    "aliases": {},
    "files": [],
    "requires": []
}
