{
    "name": "PurchaseReturn",
    "alias": "purchasereturn",
    "description": "",
    "keywords": [],
    "order": 0,
    "providers": [
        "Modules\\PurchaseReturn\\Providers\\PurchaseReturnServiceProvider"
    ],
    "aliases": {},
    "files": [],
    "requires": []
}
