{
    "name": "Discounts",
    "alias": "discounts",
    "description": "",
    "keywords": [],
    "order": 0,
    "providers": [
        "Modules\\Discounts\\Providers\\DiscountsServiceProvider"
    ],
    "aliases": {},
    "files": [],
    "requires": []
}
