{
    "name": "AccessLevel",
    "alias": "accesslevel",
    "description": "",
    "keywords": [],
    "order": 0,
    "providers": [
        "Modules\\AccessLevel\\Providers\\AccessLevelServiceProvider"
    ],
    "aliases": {},
    "files": [],
    "requires": []
}
