{
    "Categories": true,
    "SubCategories": true,
    "Items": true,
    "Products": true,
    "Invoice": true,
    "Invoices": true,
    "Bills": true,
    "Payments": true,
    "Reports": true,
    "Users": true,
    "Expenses": true,
    "Customers": true,
    "Backup": true,
    "SalesReturn": true,
    "PurchaseReturn": true,
    "Discounts": true,
    "PaidThroughAccounts": true,
    "AccessLevel": true,
    "Branch": true,
    "Messages": true,
    "Income": true,
    "BalanceTransfer": true,
    "PurchaseOrders": true,
    "Damages": true
}