{
    "name": "Income",
    "alias": "income",
    "description": "",
    "keywords": [],
    "order": 0,
    "providers": [
        "Modules\\Income\\Providers\\IncomeServiceProvider"
    ],
    "aliases": {},
    "files": [],
    "requires": []
}
