{
    "name": "PaidThroughAccounts",
    "alias": "paidthroughaccounts",
    "description": "",
    "keywords": [],
    "order": 0,
    "providers": [
        "Modules\\PaidThroughAccounts\\Providers\\PaidThroughAccountsServiceProvider"
    ],
    "aliases": {},
    "files": [],
    "requires": []
}
