{
    "name": "Partners",
    "alias": "partners",
    "description": "",
    "keywords": [],
    "order": 0,
    "providers": [
        "Modules\\Partners\\Providers\\PartnersServiceProvider"
    ],
    "aliases": {},
    "files": [],
    "requires": []
}
