{
    "name": "Tables",
    "alias": "tables",
    "description": "",
    "keywords": [],
    "order": 0,
    "providers": [
        "Modules\\Tables\\Providers\\TablesServiceProvider"
    ],
    "aliases": {},
    "files": [],
    "requires": []
}
