{
    "name": "Uses",
    "alias": "uses",
    "description": "",
    "keywords": [],
    "order": 0,
    "providers": [
        "Modules\\Uses\\Providers\\UsesServiceProvider"
    ],
    "aliases": {},
    "files": [],
    "requires": []
}
