{
    "name": "SalesReturn",
    "alias": "salesreturn",
    "description": "",
    "keywords": [],
    "order": 0,
    "providers": [
        "Modules\\SalesReturn\\Providers\\SalesReturnServiceProvider"
    ],
    "aliases": {},
    "files": [],
    "requires": []
}
