{
    "name": "Productions",
    "alias": "productions",
    "description": "",
    "keywords": [],
    "order": 0,
    "providers": [
        "Modules\\Productions\\Providers\\ProductionsServiceProvider"
    ],
    "aliases": {},
    "files": [],
    "requires": []
}
