{
    "name": "Expenses",
    "alias": "expenses",
    "description": "",
    "keywords": [],
    "order": 0,
    "providers": [
        "Modules\\Expenses\\Providers\\ExpensesServiceProvider"
    ],
    "aliases": {},
    "files": [],
    "requires": []
}
