{
    "name": "Assets",
    "alias": "assets",
    "description": "",
    "keywords": [],
    "order": 0,
    "providers": [
        "Modules\\Assets\\Providers\\AssetsServiceProvider"
    ],
    "aliases": {},
    "files": [],
    "requires": []
}
