{
    "name": "Bills",
    "alias": "bills",
    "description": "",
    "keywords": [],
    "order": 0,
    "providers": [
        "Modules\\Bills\\Providers\\BillsServiceProvider"
    ],
    "aliases": {},
    "files": [],
    "requires": []
}
