{
    "name": "Invoices",
    "alias": "invoices",
    "description": "",
    "keywords": [],
    "order": 0,
    "providers": [
        "Modules\\Invoices\\Providers\\InvoicesServiceProvider"
    ],
    "aliases": {},
    "files": [],
    "requires": []
}
