{
    "name": "BalanceTransfer",
    "alias": "balancetransfer",
    "description": "",
    "keywords": [],
    "order": 0,
    "providers": [
        "Modules\\BalanceTransfer\\Providers\\BalanceTransferServiceProvider"
    ],
    "aliases": {},
    "files": [],
    "requires": []
}
