{
    "name": "Damages",
    "alias": "damages",
    "description": "",
    "keywords": [],
    "order": 0,
    "providers": [
        "Modules\\Damages\\Providers\\DamagesServiceProvider"
    ],
    "aliases": {},
    "files": [],
    "requires": []
}
