{
    "name": "PurchaseOrders",
    "alias": "purchaseorders",
    "description": "",
    "keywords": [],
    "order": 0,
    "providers": [
        "Modules\\PurchaseOrders\\Providers\\PurchaseOrdersServiceProvider"
    ],
    "aliases": {},
    "files": [],
    "requires": []
}
